ISP_BOG:
conf term
username R1_BOG password 1234
int s0/0
encapsulation ppp
ppp authentication chap
-------------------------------------
R1_BOG:
conf term
username ISP_BOG password 1234
int s0/0
encapsulation ppp
ppp authentication chap
-------------------------------------
R2_ESP:
conf term
username ISP_ESP password 123
int s0/0
encapsulation ppp
ppp authentication chap
-------------------------------------
ISP_ESP:
conf term
username R2_ESP password 123
int s0/1
encapsulation ppp
ppp authentication chap